0,644.028208732605,1577.040135383606
1,656.2906007766724,1533.784487247467
2,670.1253681182861,1490.7099814414978
3,685.2651929855347,1447.8380122184753
4,701.4607520103455,1405.3073587417603
5,718.9385499954224,1363.2094764709473
6,737.340723991394,1321.8397903442383
7,756.6083369255066,1281.5544238090515
8,776.4092836380005,1242.3004083633423
9,797.0635271072388,1204.3757019042969
10,818.2187347412109,1167.7045211791992
11,839.451244354248,1132.5365080833435
12,860.8730945587158,1099.1814231872559
13,882.6907739639282,1067.204116344452
14,904.2428331375122,1036.4784379005432
15,925.5915284156799,1007.5071067810059
16,946.5065894126892,980.5034799575806
17,967.374101638794,954.6372714042664
18,987.5976982116699,930.6289505958557
19,662.6703572273254,1592.8214535713196
20,675.0357608795166,1548.419117450714
21,689.3046579360962,1503.8687100410461
22,704.5966796875,1459.2108969688416
23,721.4528102874756,1415.2658052444458
24,739.3382334709167,1371.5447940826416
25,758.3078827857971,1328.7653822898865
26,778.0842480659485,1286.8500151634216
27,798.5888595581055,1246.558723449707
28,819.9232249259949,1207.323043346405
29,841.671528339386,1169.746958732605
30,863.3491454124451,1133.511549949646
31,885.3884954452515,1099.0606579780579
32,907.4985933303833,1066.4001197814941
33,929.2908611297607,1035.1854825019836
34,951.381097316742,1005.6992988586426
35,972.3090181350708,978.2288980484009
36,993.4746980667114,952.1075706481934
37,1013.805498123169,927.3792662620544
38,683.153510093689,1609.7920265197754
39,696.0995392799377,1564.0481033325195
40,710.1587600708008,1517.7883658409119
41,726.0112700462341,1471.709098815918
42,743.264799118042,1425.8604021072388
43,761.9121017456055,1380.707061290741
44,781.0316443443298,1336.4274039268494
45,801.6233444213867,1293.0586605072021
46,822.8264584541321,1250.9970874786377
47,844.408175945282,1210.8654198646545
48,866.6557130813599,1171.6691093444824
49,888.8889880180359,1134.6899881362915
50,911.6603851318359,1099.3835768699646
51,933.949206829071,1065.7624530792236
52,956.3647174835205,1034.113709449768
53,978.2086896896362,1004.2270655632019
54,999.4795451164246,976.1891975402832
55,1021.1132507324219,949.523187160492
56,1041.4347796440125,924.7768483161926
57,705.4993152618408,1627.928394794464
58,718.3644533157349,1580.4102058410645
59,733.2894201278687,1532.6625833511353
60,749.2926917076111,1484.6975774765015
61,767.092453956604,1437.2189140319824
62,785.9494953155518,1390.2924938201904
63,805.8054437637329,1344.4160470962524
64,827.1034746170044,1299.4883065223694
65,848.6211090087891,1256.1033053398132
66,870.9331202507019,1214.4472060203552
67,893.7348313331604,1174.24174451828
68,916.3540291786194,1136.3130321502686
69,939.774582862854,1099.8183240890503
70,962.5618238449097,1065.3571772575378
71,985.1544404029846,1033.0186648368835
72,1007.0614671707153,1002.5606307983398
73,1028.643937587738,974.1035280227661
74,1050.3084964752197,947.4148278236389
75,1070.4888095855713,922.5077075958252
76,730.025143623352,1646.9019198417664
77,743.5046186447144,1598.0713939666748
78,758.4922513961792,1548.5042848587036
79,775.0485143661499,1498.839060306549
80,793.2547287940979,1449.5178418159485
81,812.5890145301819,1400.790189743042
82,833.208872795105,1353.1615419387817
83,854.7627725601196,1306.748463153839
84,877.1988439559937,1261.6338119506836
85,899.9453830718994,1218.6164169311523
86,923.2171936035156,1177.3680672645569
87,946.3860545158386,1138.0987620353699
88,970.1452040672302,1100.5221247673035
89,993.4657573699951,1065.4357070922852
90,1015.9206094741821,1032.4711422920227
91,1038.2168226242065,1001.5253133773804
92,1059.4887776374817,972.7473983764648
93,1081.2048316001892,945.3873600959778
94,1101.303774356842,920.4373531341553
95,757.359103679657,1667.5547332763672
96,770.9135727882385,1616.8536901474
97,786.3192434310913,1565.1975827217102
98,803.2929940223694,1513.9702310562134
99,821.8089323043823,1462.8080735206604
100,841.8393940925598,1412.1884803771973
101,862.9232654571533,1363.017807006836
102,885.0814208984375,1314.5045595169067
103,907.7503294944763,1267.8464012145996
104,931.3536109924316,1223.206088066101
105,955.1423425674438,1180.5908946990967
106,978.649172782898,1140.2457437515259
107,1002.636013507843,1101.9212851524353
108,1025.8912029266357,1065.8558173179626
109,1048.5590343475342,1032.3250088691711
110,1071.1814680099487,1000.7372603416443
111,1093.1430897712708,971.0650134086609
112,1114.146469116211,943.779637336731
113,1134.2954597473145,918.4379186630249
114,787.5216932296753,1689.3333592414856
115,801.325035572052,1636.9167046546936
116,816.9527568817139,1583.5181093215942
117,834.3712863922119,1530.2365865707397
118,853.5131530761719,1476.9637098312378
119,874.0572023391724,1424.5459423065186
120,895.5688977241516,1373.0637159347534
121,918.4783306121826,1322.9339201450348
122,941.6586818695068,1274.5997247695923
123,965.6144666671753,1228.473180770874
124,989.6125688552856,1184.4382429122925
125,1013.8877859115601,1142.9387526512146
126,1037.5420236587524,1103.566288471222
127,1061.058756828308,1066.8910608291626
128,1084.313015460968,1032.4273462295532
129,1106.1088862419128,1000.4984006881714
130,1127.8523726463318,970.6035914421082
131,1148.6742281913757,943.1654953956604
132,1168.6739768981934,917.3171639442444
133,820.7919316291809,1712.511347770691
134,834.7403135299683,1658.180856704712
135,851.1923017501831,1603.2458610534668
136,868.7286100387573,1547.6484575271606
137,888.3240270614624,1492.29554605484
138,909.3027544021606,1437.6935424804688
139,931.5220241546631,1384.3178262710571
140,954.8033657073975,1332.1061506271362
141,978.442656993866,1282.342900276184
142,1002.6229424476624,1234.309238433838
143,1027.2733788490295,1188.920226097107
144,1051.2687253952026,1146.2398042678833
145,1075.4327940940857,1105.8976969718933
146,1098.393030166626,1068.4646396636963
147,1121.5307159423828,1033.1560983657837
148,1143.5152926445007,1000.689199924469
149,1164.723313331604,970.6483149528503
150,1184.8637595176697,942.7207956314087
151,1204.9241275787354,916.6445589065552
152,857.5976719856262,1736.754207611084
153,872.3970603942871,1680.7703986167908
154,888.5645365715027,1623.7039966583252
155,906.7805428504944,1566.3346347808838
156,926.9071269035339,1508.797236919403
157,948.2429347038269,1452.1125526428223
158,970.9720468521118,1396.4078392982483
159,994.4559755325317,1342.4039235115051
160,1018.8032054901123,1290.5084600448608
161,1043.264729976654,1241.0931477546692
162,1067.678448677063,1193.9320406913757
163,1092.0406985282898,1150.1193580627441
164,1115.8840065002441,1108.6788711547852
165,1139.0748915672302,1070.4593467712402
166,1161.4909844398499,1034.7232236862183
167,1183.359393119812,1001.496584892273
168,1204.3642926216125,971.2343473434448
169,1224.051012992859,942.9190535545349
170,1243.3329973220825,916.6923594474792
171,898.6170201301575,1762.3782024383545
172,913.4553456306458,1704.7311596870422
173,930.2154750823975,1645.5864176750183
174,948.7987937927246,1586.1770205497742
175,969.3424291610718,1526.6078472137451
176,991.1423492431641,1467.3172941207886
177,1014.1110916137695,1409.6535286903381
178,1037.9394044876099,1353.523889541626
179,1062.3167924880981,1299.8669681549072
180,1087.051718711853,1248.7068567276
181,1111.5339179039001,1200.1290440559387
182,1135.6915245056152,1154.8384327888489
183,1159.298939704895,1112.5206422805786
184,1182.1975684165955,1073.4901332855225
185,1204.1669397354126,1037.127941608429
186,1225.4748902320862,1003.142692565918
187,1245.4526419639587,972.2857418060303
188,1264.908148765564,943.702094078064
189,1283.0639252662659,917.4725880622864
190,943.6368913650513,1788.8980317115784
191,959.050199508667,1729.6071405410767
192,976.3347578048706,1668.8957920074463
193,995.4233407974243,1607.2767601013184
194,1015.9484829902649,1545.032681941986
195,1038.1807165145874,1483.8638362884521
196,1061.7075395584106,1423.8962547779083
197,1085.6667170524597,1365.8094592094421
198,1109.9669332504272,1310.0162239074707
199,1134.5310645103455,1257.1732687950134
200,1158.8124504089355,1207.2376098632812
201,1182.7225694656372,1160.6554682254791
202,1205.665355205536,1117.3576135635376
203,1227.8415250778198,1077.2624711990356
204,1249.1764359474182,1040.340027332306
205,1269.656090259552,1006.0794544219971
206,1288.7240738868713,974.6936430931091
207,1307.3231782913208,945.9234304428101
208,1324.5450711250305,919.4086246490479
209,993.3593416213989,1816.5538988113403
210,1008.9683122634888,1755.4893159866333
211,1026.9213819503784,1692.7918219566345
212,1046.363733291626,1628.8157439231873
213,1067.3955917358398,1565.2443509101868
214,1089.881439447403,1501.4050874710083
215,1113.1817698478699,1439.2184262275696
216,1137.3139996528625,1378.8986277580261
217,1161.5500388145447,1321.3607273101807
218,1185.7286553382874,1266.6332077980042
219,1209.9506359100342,1215.3311109542847
220,1233.2854862213135,1167.4285173416138
221,1255.276556968689,1123.0293521881104
222,1276.1659607887268,1082.1505498886108
223,1297.023519039154,1044.277838230133
224,1316.383355140686,1009.5006308555603
225,1334.439388036728,978.0180788040161
226,1351.6812081336975,948.6642360687256
227,1368.0713376998901,922.0625805854797
228,1047.5151953697205,1844.5029182434082
229,1064.0398988723755,1782.2817287445068
230,1082.0151901245117,1717.7504577636719
231,1101.9028906822205,1652.2271838188171
232,1123.4022965431213,1585.8963913917542
233,1145.8674926757812,1520.1126346588135
234,1169.3391222953796,1455.5987405776978
235,1193.2608160972595,1393.4218482971191
236,1217.0244970321655,1333.8286447525024
237,1240.771957874298,1277.459135055542
238,1263.7102799415588,1224.5732736587524
239,1286.074315071106,1175.4428243637085
240,1307.603397846222,1129.925047636032
241,1327.75998878479,1088.2661528587341
242,1347.0989627838135,1049.7251362800598
243,1364.7568335533142,1014.6309118270874
244,1381.7293438911438,982.3860049247742
245,1398.1557636260986,953.0916719436646
246,1412.8531303405762,925.6976418495178
247,1106.3288779258728,1872.695408821106
248,1123.4796824455261,1809.2284817695618
249,1142.2637701034546,1743.3757271766663
250,1162.4720816612244,1675.6775550842285
251,1184.1170816421509,1607.375714302063
252,1206.6848826408386,1539.3770661354065
253,1230.0230531692505,1472.881025314331
254,1253.3431782722473,1408.684582233429
255,1276.4538021087646,1347.3770847320557
256,1299.3010754585266,1289.388264656067
257,1321.179416179657,1234.7905640602112
258,1342.2025117874146,1184.7073383331299
259,1362.3017592430115,1138.0993871688843
260,1381.2087717056274,1095.4443168640137
261,1399.0114150047302,1056.3434720039368
262,1415.5474152565002,1020.5031552314758
263,1430.8996758460999,988.1579647064209
264,1445.3955607414246,958.2386789321899
265,1459.0750641822815,930.758620262146
266,1169.5715255737305,1900.4127197265625
267,1187.5494661331177,1835.8260879516602
268,1206.9364075660706,1768.7202582359314
269,1227.5340037345886,1699.718547821045
270,1249.3354816436768,1629.511977672577
271,1271.7520761489868,1559.8391242027283
272,1294.5467991828918,1491.109905719757
273,1317.1558890342712,1425.299259185791
274,1339.48241853714,1362.0912079811096
275,1360.857521533966,1302.556360244751
276,1381.4676609039307,1246.797239780426
277,1401.275047302246,1195.3005418777466
278,1419.4892468452454,1147.7279176712036
279,1436.6591310501099,1104.250111579895
280,1452.7955474853516,1064.506287574768
281,1467.912739276886,1028.1100115776062
282,1481.6105699539185,994.9099717140198
283,1494.4313130378723,964.5997486114502
284,1506.118179321289,937.1754765510559
285,1236.7588481903076,1927.3175067901611
286,1255.4690718650818,1862.0714206695557
287,1275.6403851509094,1793.7112259864807
288,1296.5859532356262,1723.1815524101257
289,1318.3179969787598,1651.737446308136
290,1340.6215496063232,1580.180757522583
291,1362.3758811950684,1510.1621160507202
292,1384.1243448257446,1442.271300315857
293,1405.26802444458,1377.732542514801
294,1425.3528032302856,1316.7177543640137
295,1444.214663028717,1259.8582105636597
296,1462.2421894073486,1207.119155883789
297,1478.782880783081,1158.73304271698
298,1493.7828826904297,1114.4266085624695
299,1508.132014989853,1073.5678734779358
300,1521.138819694519,1036.8682622909546
301,1533.3703818321228,1002.9918789863586
302,1544.267723083496,972.575945854187
303,1554.2889971733093,944.5138845443726
304,1307.4614210128784,1952.7948894500732
305,1327.1619091033936,1886.833257675171
306,1348.0871419906616,1817.6439616680145
307,1368.9192390441895,1746.2701406478882
308,1390.8959312438965,1673.456178188324
309,1412.4445734024048,1600.7144713401794
310,1433.608672618866,1529.5071260929108
311,1454.2544975280762,1460.2860355377197
312,1473.53657913208,1394.2637867927551
313,1491.905695438385,1332.1677017211914
314,1508.7911286354065,1274.1668076515198
315,1524.790457725525,1220.3601245880127
316,1539.3822710514069,1170.7198169231415
317,1552.3232164382935,1125.6649899482727
318,1564.619863986969,1084.6698679924011
319,1575.4097957611084,1046.7896809577942
320,1585.351040840149,1012.839123249054
321,1594.6136016845703,981.6939163208008
322,1602.9606862068176,953.1466474533081
323,1380.2783117294312,1975.9385948181152
324,1401.1368660926819,1909.7686820030212
325,1422.2822995185852,1840.2909364700317
326,1443.7657752037048,1768.1998662948608
327,1465.149001121521,1694.8614721298218
328,1486.177137374878,1620.8326272964478
329,1506.2295002937317,1548.5138263702393
330,1525.1679997444153,1478.4509601593018
331,1542.947350025177,1411.5770225524902
332,1559.4000625610352,1348.424877166748
333,1574.4549932479858,1289.4473972320557
334,1588.0515475273132,1234.7682375907898
335,1600.5176973342896,1184.3852443695068
336,1611.2265300750732,1138.7055177688599
337,1621.4590339660645,1096.8385677337646
338,1630.283561706543,1058.6663479804993
339,1638.0657901763916,1023.7814478874207
340,1645.3482027053833,992.2898836135864
341,1651.9042873382568,963.2825450897217
342,1454.37775182724,1996.8028888702393
343,1475.9803915023804,1930.524817943573
344,1497.6358485221863,1860.821026802063
345,1519.304141998291,1788.6277508735657
346,1540.5338125228882,1714.6807355880737
347,1560.4044733047485,1640.7549366950989
348,1579.4648389816284,1567.5682468414307
349,1596.9225029945374,1496.896240234375
350,1612.9169144630432,1429.1869039535522
351,1627.451861858368,1365.2113885879517
352,1640.2908506393433,1305.6049609184265
353,1651.5373163223267,1250.0750398635864
354,1661.5435180664062,1199.3609552383423
355,1670.4321131706238,1152.629890680313
356,1678.245496749878,1110.3207144737244
357,1684.8990049362183,1071.4895663261414
358,1690.7248096466064,1036.2127323150635
359,1695.8603014945984,1003.8493499755859
360,1700.6166939735413,974.4554696083069