0,1577.2565741539001,2233.8622715473175
1,1547.4187116622925,2220.64413356781
2,1518.10546875,2205.82470703125
3,1483.3314208984375,2187.919677734375
4,1445.18359375,2167.427490234375
5,1402.65234375,2142.8505859375
6,1355.346923828125,2113.54736328125
7,1302.453857421875,2078.78271484375
8,1245.22216796875,2037.7095947265625
9,1182.6536865234375,1989.028564453125
10,1114.599853515625,1932.2314453125
11,1043.6695556640625,1865.7620849609375
12,971.6048583984375,1790.181640625
13,899.3405151367188,1707.4903564453125
14,830.9824829101562,1618.5640869140625
15,768.3721313476562,1526.3240966796875
16,713.5613403320312,1434.17578125
17,666.83837890625,1344.39404296875
18,628.7659912109375,1259.2877197265625
19,1633.0,2216.0
20,1607.0,2203.0
21,1577.7623291015625,2186.40576171875
22,1546.0499267578125,2168.379638671875
23,1510.26611328125,2147.158935546875
24,1470.002197265625,2121.81494140625
25,1424.9805908203125,2091.701416015625
26,1374.2213134765625,2056.005859375
27,1317.7001953125,2013.327880859375
28,1255.22265625,1962.4635009765625
29,1187.0352783203125,1901.83984375
30,1114.1700439453125,1831.64501953125
31,1036.94970703125,1751.37158203125
32,962.8320922851562,1661.38818359375
33,890.1809692382812,1565.5601806640625
34,824.180419921875,1466.5987548828125
35,766.1448364257812,1369.086181640625
36,717.6765747070312,1274.499755859375
37,678.0867919921875,1187.2803955078125
38,1690.0,2195.0
39,1666.0,2181.0
40,1640.2652587890625,2163.608642578125
41,1611.1505126953125,2144.579345703125
42,1578.6153564453125,2122.426513671875
43,1541.8603515625,2096.175048828125
44,1499.572021484375,2065.029296875
45,1451.8839111328125,2027.61181640625
46,1397.6221923828125,1982.915283203125
47,1336.8896484375,1929.2850341796875
48,1269.0313720703125,1865.6009521484375
49,1195.7222900390625,1790.244140625
50,1117.8258056640625,1703.361572265625
51,1038.381103515625,1607.2603759765625
52,962.4148559570312,1504.188232421875
53,892.4646606445312,1398.5341796875
54,831.4768676757812,1295.3702392578125
55,780.3655395507812,1198.2178955078125
56,738.7994995117188,1109.173095703125
57,1742.0,2171.0
58,1724.0,2158.0
59,1703.0,2139.0
60,1679.0572509765625,2116.75634765625
61,1648.41259765625,2093.0419921875
62,1616.6678466796875,2065.54443359375
63,1578.263427734375,2032.531982421875
64,1534.9012451171875,1993.24169921875
65,1484.233154296875,1945.8936767578125
66,1426.79736328125,1889.14404296875
67,1361.471435546875,1821.0950927734375
68,1288.6259765625,1740.7110595703125
69,1210.2137451171875,1648.169921875
70,1128.9693603515625,1544.3846435546875
71,1049.52783203125,1433.787109375
72,976.0811767578125,1321.8348388671875
73,911.0175170898438,1215.175048828125
74,856.8126220703125,1115.6199951171875
75,812.5045776367188,1026.3974609375
76,1805.0,2144.0
77,1787.0,2126.0
78,1768.0,2108.0
79,1747.0,2085.0
80,1722.7537841796875,2059.111328125
81,1692.7542724609375,2029.630615234375
82,1660.6046142578125,1994.3883056640625
83,1621.1697998046875,1952.3570556640625
84,1576.37109375,1901.9827880859375
85,1523.3115234375,1841.4761962890625
86,1462.42919921875,1768.75537109375
87,1392.6546630859375,1682.6854248046875
88,1315.6055908203125,1583.3175048828125
89,1233.8782958984375,1472.7525634765625
90,1152.2789306640625,1355.626220703125
91,1074.9844970703125,1239.3707275390625
92,1006.7765502929688,1128.867431640625
93,948.0799560546875,1029.556640625
94,899.54736328125,942.0435180664062
95,1863.0,2113.0
96,1848.0,2094.0
97,1832.7669677734375,2072.8203125
98,1815.06103515625,2048.879638671875
99,1794.8651123046875,2021.522705078125
100,1771.14990234375,1988.5416259765625
101,1743.0037841796875,1951.0792236328125
102,1710.243896484375,1905.192138671875
103,1670.756591796875,1851.4361572265625
104,1624.390625,1786.373779296875
105,1569.174072265625,1708.564453125
106,1504.4967041015625,1617.03466796875
107,1431.3673095703125,1511.3370361328125
108,1351.2501220703125,1394.73046875
109,1268.7281494140625,1272.9715576171875
110,1189.182861328125,1153.42236328125
111,1116.5269775390625,1042.1751708984375
112,1053.1002197265625,944.0341186523438
113,999.2636108398438,859.3607788085938
114,1918.0,2079.0
115,1908.0,2060.0
116,1896.1436767578125,2035.4874267578125
117,1882.3968505859375,2009.562744140625
118,1866.49951171875,1979.067626953125
119,1847.38330078125,1943.9246826171875
120,1824.8665771484375,1902.372314453125
121,1797.9627685546875,1853.421142578125
122,1765.2628173828125,1794.9619140625
123,1725.4476318359375,1725.27978515625
124,1676.9434814453125,1643.069091796875
125,1618.0,1546.0
126,1551.3310546875,1435.5374755859375
127,1475.1126708984375,1315.0496826171875
128,1393.848876953125,1190.3280029296875
129,1312.984375,1069.796142578125
130,1236.721435546875,959.8692016601562
131,1168.254638671875,864.0765380859375
132,1108.7275390625,782.2836303710938
133,1974.0,2044.0
134,1966.0,2021.0
135,1957.6083984375,1995.5728759765625
136,1947.3841552734375,1967.1903076171875
137,1935.567626953125,1934.0279541015625
138,1921.3104248046875,1895.2677001953125
139,1904.014892578125,1850.20654296875
140,1882.5067138671875,1797.0264892578125
141,1855.851318359375,1734.6080322265625
142,1822.855224609375,1660.5775146484375
143,1781.77734375,1573.5826416015625
144,1730.877197265625,1472.8262939453125
145,1669.37841796875,1359.7484130859375
146,1598.4190673828125,1237.628173828125
147,1520.2408447265625,1113.1995849609375
148,1439.5567626953125,994.1327514648438
149,1360.9625244140625,886.650146484375
150,1288.485107421875,793.342529296875
151,1224.0,714.0
152,2026.0,2007.0
153,2022.0,1983.0
154,2016.193359375,1953.5701904296875
155,2009.5574951171875,1922.3094482421875
156,2001.297607421875,1886.1810302734375
157,1991.1304931640625,1844.351806640625
158,1978.1588134765625,1795.3978271484375
159,1961.7913818359375,1738.609375
160,1940.54931640625,1672.048095703125
161,1913.4266357421875,1594.4683837890625
162,1878.439208984375,1504.5887451171875
163,1834.237060546875,1401.87841796875
164,1779.106201171875,1287.9234619140625
165,1713.506591796875,1167.521728515625
166,1639.5645751953125,1045.65087890625
167,1560.715087890625,930.123046875
168,1482.3214111328125,825.6437377929688
169,1407.1102294921875,735.9146728515625
170,1337.639404296875,659.8258056640625
171,2076.0,1968.0
172,2075.0,1941.0
173,2071.48291015625,1910.1741943359375
174,2067.822509765625,1875.673095703125
175,2062.760498046875,1836.7008056640625
176,2055.730712890625,1791.839111328125
177,2046.56884765625,1739.671875
178,2033.909423828125,1679.606201171875
179,2017.0543212890625,1610.182373046875
180,1994.6085205078125,1529.7470703125
181,1964.5989990234375,1438.5174560546875
182,1925.423828125,1335.906982421875
183,1876.1048583984375,1224.115478515625
184,1816.1458740234375,1106.686767578125
185,1747.1328125,989.63232421875
186,1671.829833984375,877.8660888671875
187,1594.538330078125,777.7914428710938
188,1518.8436279296875,690.9930419921875
189,1447.36083984375,617.2090454101562
190,2124.0,1930.0
191,2124.0,1899.0
192,2123.046630859375,1865.5543212890625
193,2121.66552734375,1828.6773681640625
194,2118.88330078125,1787.03125
195,2114.732421875,1739.0135498046875
196,2108.342041015625,1684.222900390625
197,2098.666259765625,1621.6043701171875
198,2084.97021484375,1549.6876220703125
199,2065.572509765625,1468.9517822265625
200,2039.316650390625,1377.213134765625
201,2004.447265625,1276.3055419921875
202,1959.442138671875,1167.943359375
203,1904.6414794921875,1055.652099609375
204,1840.5570068359375,943.7265625
205,1769.9132080078125,837.84521484375
206,1695.73291015625,741.4105224609375
207,1621.136474609375,657.4786376953125
208,1549.68115234375,585.6358642578125
209,2168.0,1887.0
210,2170.0,1857.0
211,2170.6171875,1820.687744140625
212,2171.0634765625,1781.51171875
213,2170.092529296875,1737.536865234375
214,2167.84326171875,1687.1865234375
215,2163.302734375,1630.380859375
216,2155.414306640625,1566.324951171875
217,2143.75732421875,1493.524169921875
218,2126.78515625,1411.851318359375
219,2103.21826171875,1321.7696533203125
220,2071.18115234375,1223.7100830078125
221,2029.9945068359375,1120.02099609375
222,1979.8603515625,1013.1661987304688
223,1920.450927734375,907.3392944335938
224,1854.49365234375,806.913330078125
225,1783.9197998046875,714.9170532226562
226,1712.2755126953125,633.6137084960938
227,1640.896484375,563.9434814453125
228,2209.0,1849.0
229,2212.0,1814.0
230,2214.0859375,1776.0443115234375
231,2215.697509765625,1734.934814453125
232,2216.08203125,1688.9290771484375
233,2214.985107421875,1637.0245361328125
234,2211.4697265625,1578.5914306640625
235,2205.214111328125,1513.22802734375
236,2194.553955078125,1440.655517578125
237,2178.927734375,1360.4012451171875
238,2157.12158203125,1272.2510986328125
239,2127.558837890625,1177.852783203125
240,2089.616455078125,1078.71630859375
241,2042.9478759765625,977.9163208007812
242,1988.2293701171875,878.3558349609375
243,1926.63525390625,783.616455078125
244,1860.6771240234375,696.0227661132812
245,1791.8792724609375,617.681396484375
246,1723.8267822265625,549.8824462890625
247,2247.0,1807.0
248,2250.0,1772.0
249,2253.2880859375,1732.455810546875
250,2255.509521484375,1690.0108642578125
251,2256.595703125,1642.24609375
252,2256.185791015625,1589.25439453125
253,2253.4814453125,1530.0489501953125
254,2247.499267578125,1464.5665283203125
255,2237.816162109375,1392.241455078125
256,2223.06982421875,1313.558349609375
257,2202.3720703125,1228.3260498046875
258,2174.671875,1138.2333984375
259,2139.331787109375,1044.315185546875
260,2096.093017578125,948.7962646484375
261,2045.177978515625,855.56884765625
262,1988.04931640625,765.765625
263,1926.310546875,682.9192504882812
264,1861.89990234375,607.8577880859375
265,1795.962890625,541.4874877929688
266,2281.0,1767.0
267,2286.0,1729.0
268,2288.490234375,1689.8642578125
269,2291.2900390625,1645.71142578125
270,2292.571533203125,1597.426513671875
271,2292.447509765625,1543.4365234375
272,2289.70458984375,1484.0784912109375
273,2284.042236328125,1419.322265625
274,2274.517822265625,1348.246826171875
275,2260.362060546875,1271.4560546875
276,2240.4638671875,1189.5994873046875
277,2214.21533203125,1103.5946044921875
278,2180.792236328125,1014.8399047851562
279,2140.676513671875,925.2630004882812
280,2093.370361328125,837.2127075195312
281,2040.156982421875,752.753662109375
282,1982.5758056640625,673.7227783203125
283,1921.6204833984375,601.8363037109375
284,1859.6929931640625,537.8167724609375
285,2312.0,1727.0
286,2316.0,1692.0
287,2320.0,1650.0
288,2322.4306640625,1604.53076171875
289,2324.020751953125,1555.2703857421875
290,2323.5966796875,1500.939453125
291,2320.91259765625,1442.07177734375
292,2315.296142578125,1377.4127197265625
293,2305.682373046875,1308.20849609375
294,2291.692626953125,1234.113037109375
295,2272.503662109375,1155.534912109375
296,2247.43212890625,1073.4986572265625
297,2215.97314453125,989.7002563476562
298,2178.201171875,905.4652709960938
299,2133.97216796875,822.6173706054688
300,2084.574951171875,742.8306274414062
301,2030.4940185546875,668.0870971679688
302,1973.5770263671875,599.1270141601562
303,1914.7860107421875,537.0708618164062
304,2339.0,1692.0
305,2344.0,1652.0
306,2347.55810546875,1611.4749755859375
307,2350.342529296875,1564.4063720703125
308,2351.41015625,1515.3394775390625
309,2350.806884765625,1461.2659912109375
310,2348.095703125,1401.9971923828125
311,2341.740234375,1339.6346435546875
312,2332.15625,1272.209228515625
313,2318.389892578125,1200.3583984375
314,2299.556396484375,1125.3480224609375
315,2275.4453125,1047.6751708984375
316,2245.610107421875,968.2576904296875
317,2209.90234375,888.8610229492188
318,2168.672119140625,810.6964111328125
319,2122.6455078125,735.4575805664062
320,2072.33642578125,664.5840454101562
321,2018.4921875,598.3173828125
322,1963.6663818359375,538.6761474609375
323,2365.0,1654.0
324,2369.0,1616.0
325,2373.0,1573.0
326,2374.573974609375,1526.780029296875
327,2375.459228515625,1477.3463134765625
328,2374.4375,1423.7508544921875
329,2370.839599609375,1366.5660400390625
330,2364.502685546875,1305.0943603515625
331,2354.695556640625,1239.5228271484375
332,2340.8037109375,1170.507080078125
333,2322.58056640625,1098.6590576171875
334,2299.359619140625,1024.9779052734375
335,2270.76171875,949.9930419921875
336,2236.987548828125,874.9519653320312
337,2198.48291015625,801.2517700195312
338,2155.35986328125,729.9481811523438
339,2108.36083984375,662.479736328125
340,2058.3359375,599.5574340820312
341,2005.59130859375,541.5629272460938
342,2387.0,1620.0
343,2391.0,1581.0
344,2394.0,1538.0
345,2396.2490234375,1490.9525146484375
346,2396.480224609375,1441.83349609375
347,2394.72265625,1389.449951171875
348,2390.705810546875,1333.1546630859375
349,2383.82861328125,1273.468505859375
350,2373.640380859375,1210.2452392578125
351,2360.12255859375,1143.9241943359375
352,2342.01708984375,1075.327392578125
353,2319.682861328125,1004.8994750976562
354,2292.566650390625,933.8538208007812
355,2260.71923828125,863.1396484375
356,2224.12255859375,793.3071899414062
357,2183.57568359375,725.833984375
358,2139.5615234375,661.6502685546875
359,2092.377685546875,601.2909545898438
360,2043.0313720703125,544.8673095703125