0,630.6957263946533,1851.780734539032
1,642.1782193183899,1823.629032611847
2,654.4559936523438,1794.090576171875
3,667.735107421875,1763.9991455078125
4,682.0267944335938,1732.862060546875
5,697.6929321289062,1701.1075439453125
6,714.2230224609375,1668.5518798828125
7,732.1078491210938,1635.4273681640625
8,750.6856079101562,1601.9219970703125
9,770.7330322265625,1568.0106201171875
10,791.2350463867188,1533.8619384765625
11,813.1461791992188,1499.87841796875
12,835.684814453125,1465.4666748046875
13,858.9736938476562,1431.6197509765625
14,883.025146484375,1398.068115234375
15,907.6934814453125,1365.1177978515625
16,932.6060180664062,1332.612548828125
17,958.0003662109375,1301.1990966796875
18,983.7055053710938,1270.501953125
19,650.3281469345093,1879.2412781715393
20,661.5248441696167,1850.879497051239
21,674.1585693359375,1821.435546875
22,687.5546875,1790.9835205078125
23,702.3795166015625,1759.6475830078125
24,717.8118896484375,1727.1273193359375
25,734.8833618164062,1694.1923828125
26,752.9043579101562,1660.394287109375
27,771.952392578125,1626.242431640625
28,792.2177734375,1591.5804443359375
29,813.3086547851562,1556.5592041015625
30,835.409912109375,1521.5689697265625
31,858.4647216796875,1486.4100341796875
32,882.322021484375,1451.575927734375
33,906.9759521484375,1417.0960693359375
34,931.7962036132812,1383.101806640625
35,957.2887573242188,1349.8812255859375
36,983.1259155273438,1317.4005126953125
37,1008.9743041992188,1285.8529052734375
38,671.1312990188599,1907.8437056541443
39,682.794023513794,1879.3606662750244
40,695.469970703125,1849.32958984375
41,709.2236938476562,1818.93115234375
42,723.8171997070312,1787.060791015625
43,739.9009399414062,1754.469482421875
44,757.1220092773438,1720.709716796875
45,775.4221801757812,1686.5634765625
46,794.723388671875,1651.7840576171875
47,815.4076538085938,1616.3973388671875
48,837.083740234375,1580.5479736328125
49,859.5861206054688,1544.6580810546875
50,882.94140625,1508.570068359375
51,907.2662963867188,1472.7197265625
52,932.1524658203125,1437.24951171875
53,957.4964599609375,1402.456787109375
54,983.6254272460938,1368.060302734375
55,1009.5985107421875,1334.55712890625
56,1036.1356201171875,1302.2490234375
57,693.8579807281494,1936.874514579773
58,705.2707843780518,1908.1568932533264
59,718.3575439453125,1878.3548583984375
60,732.2247924804688,1847.4461669921875
61,747.486083984375,1815.4610595703125
62,763.4835205078125,1782.3875732421875
63,781.25244140625,1748.4930419921875
64,799.7757568359375,1713.5120849609375
65,819.5585327148438,1678.2520751953125
66,840.3502197265625,1641.7821044921875
67,862.48876953125,1605.5142822265625
68,885.2957153320312,1568.6002197265625
69,909.290771484375,1531.751953125
70,933.9411010742188,1494.855224609375
71,959.2760620117188,1458.5233154296875
72,985.1504516601562,1422.520263671875
73,1011.4821166992188,1387.267333984375
74,1038.0225830078125,1352.787109375
75,1064.579345703125,1319.315673828125
76,717.9960246086121,1966.242211341858
77,730.2097606658936,1937.6995978355408
78,742.9030151367188,1907.921630859375
79,757.3702392578125,1876.837158203125
80,772.6688232421875,1844.517822265625
81,789.3812866210938,1811.2769775390625
82,807.114990234375,1776.7236328125
83,826.1868896484375,1741.562255859375
84,846.179443359375,1705.4461669921875
85,867.4920043945312,1668.7691650390625
86,889.8740234375,1631.2720947265625
87,913.2733154296875,1593.947998046875
88,937.5288696289062,1555.754150390625
89,962.6597290039062,1517.8580322265625
90,988.3934936523438,1480.593017578125
91,1014.6211547851562,1443.5184326171875
92,1041.2738037109375,1407.33984375
93,1068.0604248046875,1371.82958984375
94,1095.0562744140625,1337.480712890625
95,744.0582647323608,1996.4459686279297
96,756.287609577179,1967.6795978546143
97,769.6502685546875,1938.140869140625
98,784.1006469726562,1907.1058349609375
99,800.0521240234375,1874.6715087890625
100,816.8211669921875,1840.83642578125
101,835.1071166992188,1806.383544921875
102,854.3607788085938,1770.345703125
103,874.797119140625,1733.7847900390625
104,896.5245361328125,1696.1822509765625
105,919.4113159179688,1658.3074951171875
106,942.8764038085938,1619.8126220703125
107,967.824462890625,1581.1441650390625
108,993.2771606445312,1542.2698974609375
109,1019.390625,1503.660400390625
110,1046.1407470703125,1465.78857421875
111,1072.9376220703125,1428.4639892578125
112,1100.06103515625,1391.9893798828125
113,1126.980224609375,1356.5872802734375
114,771.6737504005432,2026.7612838745117
115,784.478777885437,1998.1620712280273
116,798.1425170898438,1968.6234130859375
117,813.2809448242188,1937.7657470703125
118,829.2965698242188,1904.8675537109375
119,846.51123046875,1871.357666015625
120,864.9584350585938,1836.25048828125
121,884.7817993164062,1799.9827880859375
122,905.7921142578125,1762.8963623046875
123,927.843505859375,1725.05078125
124,951.0296020507812,1686.1217041015625
125,975.2250366210938,1646.537841796875
126,1000.297607421875,1607.1322021484375
127,1026.13818359375,1567.448486328125
128,1052.490478515625,1527.7742919921875
129,1079.5291748046875,1488.765869140625
130,1106.596923828125,1450.4632568359375
131,1133.878173828125,1413.0780029296875
132,1161.067138671875,1376.575439453125
133,801.5695648193359,2057.0882692337036
134,814.5106310844421,2029.16374874115
135,828.6029663085938,1999.5965576171875
136,843.9654541015625,1968.5257568359375
137,860.5757446289062,1935.8690185546875
138,878.28662109375,1901.9415283203125
139,897.367919921875,1866.760986328125
140,917.293212890625,1830.4017333984375
141,938.9482421875,1792.5308837890625
142,961.2979736328125,1754.036376953125
143,984.9098510742188,1714.5703125
144,1009.40380859375,1674.526611328125
145,1034.870361328125,1634.1876220703125
146,1061.0482177734375,1593.3643798828125
147,1087.843505859375,1552.873046875
148,1114.743408203125,1512.76318359375
149,1142.341064453125,1473.451171875
150,1169.7235107421875,1434.8525390625
151,1196.775390625,1397.6119384765625
152,832.9770975112915,2087.8323311805725
153,846.6148376464844,2059.8945512771606
154,861.2993774414062,2030.49169921875
155,877.0900268554688,1999.8363037109375
156,893.883056640625,1967.0946044921875
157,912.2330932617188,1933.2333984375
158,931.617919921875,1897.6512451171875
159,952.4318237304688,1861.1644287109375
160,974.1929321289062,1822.966552734375
161,997.1469116210938,1784.074951171875
162,1021.1123046875,1743.8905029296875
163,1045.825439453125,1703.0791015625
164,1071.640869140625,1661.746337890625
165,1098.1912841796875,1620.142333984375
166,1125.15966796875,1578.7640380859375
167,1152.5711669921875,1537.6611328125
168,1180.0460205078125,1497.2803955078125
169,1207.4027099609375,1457.96826171875
170,1234.6409912109375,1419.3934326171875
171,866.5052480697632,2118.3459100723267
172,880.6715364456177,2090.5538115501404
173,895.8317260742188,2061.363037109375
174,912.0703735351562,2030.658935546875
175,929.415771484375,1998.2994384765625
176,948.335693359375,1964.2701416015625
177,968.3226318359375,1928.8551025390625
178,989.281494140625,1891.80224609375
179,1011.5684814453125,1853.41943359375
180,1034.9041748046875,1814.070556640625
181,1059.224853515625,1773.2982177734375
182,1084.427978515625,1731.940673828125
183,1110.5926513671875,1690.035888671875
184,1137.291015625,1647.598876953125
185,1164.5750732421875,1605.3111572265625
186,1192.2628173828125,1563.2906494140625
187,1219.5972900390625,1521.883544921875
188,1246.8143310546875,1481.31201171875
189,1273.7572021484375,1442.172119140625
190,901.6541976928711,2148.0277070999146
191,916.4066343307495,2120.8193697929382
192,931.9317626953125,2091.908203125
193,948.8375854492188,2061.544921875
194,967.12939453125,2029.195556640625
195,986.37451171875,1995.38916015625
196,1006.7356567382812,1959.82470703125
197,1028.427490234375,1922.6083984375
198,1050.90478515625,1884.21142578125
199,1074.8497314453125,1844.30859375
200,1099.613525390625,1803.138916015625
201,1125.3406982421875,1761.2947998046875
202,1151.467041015625,1718.47412109375
203,1178.55224609375,1675.4901123046875
204,1205.926513671875,1632.197998046875
205,1233.4862060546875,1589.4840087890625
206,1260.871826171875,1547.0504150390625
207,1288.0888671875,1505.6719970703125
208,1314.7064208984375,1465.398193359375
209,938.511754989624,2177.5387678146362
210,953.784143447876,2150.586845397949
211,970.44091796875,2121.920166015625
212,987.7816772460938,2091.732177734375
213,1006.5615844726562,2059.693115234375
214,1026.33349609375,2026.034423828125
215,1047.351318359375,1990.5054931640625
216,1069.4361572265625,1953.2266845703125
217,1092.63671875,1914.516357421875
218,1116.8348388671875,1874.501953125
219,1142.119384765625,1833.131103515625
220,1167.7264404296875,1790.5379638671875
221,1194.4744873046875,1747.3138427734375
222,1221.6348876953125,1703.6085205078125
223,1248.92919921875,1659.6690673828125
224,1276.3616943359375,1615.9068603515625
225,1303.71435546875,1572.6805419921875
226,1330.6141357421875,1530.529296875
227,1356.7249755859375,1489.52099609375
228,977.345531463623,2205.975775718689
229,993.2053518295288,2179.525914669037
230,1010.2203369140625,2151.205322265625
231,1028.3040771484375,2121.414794921875
232,1047.5792236328125,2089.559814453125
233,1068.10693359375,2055.865234375
234,1089.6617431640625,2020.4327392578125
235,1112.340576171875,1983.462158203125
236,1135.911376953125,1944.4212646484375
237,1160.6900634765625,1904.303466796875
238,1186.2076416015625,1862.4630126953125
239,1212.2357177734375,1819.669921875
240,1239.25927734375,1776.0098876953125
241,1266.282470703125,1731.7781982421875
242,1293.6414794921875,1687.1168212890625
243,1320.7672119140625,1642.8131103515625
244,1347.894775390625,1598.7392578125
245,1374.3193359375,1555.57177734375
246,1400.0745849609375,1513.8350830078125
247,1016.775092124939,2233.412223815918
248,1033.4948716163635,2207.42022562027
249,1051.451904296875,2179.499755859375
250,1070.1844482421875,2149.93115234375
251,1090.2454833984375,2118.380126953125
252,1111.2921142578125,2084.9091796875
253,1133.5233154296875,2049.564697265625
254,1156.6715087890625,2012.564697265625
255,1180.896728515625,1973.8983154296875
256,1205.89501953125,1933.298583984375
257,1231.671142578125,1891.508056640625
258,1258.2103271484375,1848.3214111328125
259,1285.1292724609375,1804.401611328125
260,1312.248779296875,1759.6187744140625
261,1339.3179931640625,1714.42529296875
262,1366.4097900390625,1669.305419921875
263,1392.9091796875,1624.7252197265625
264,1418.98779296875,1581.046875
265,1444.046875,1538.481689453125
266,1057.816017150879,2259.5659370422363
267,1075.2213745117188,2233.8748984336853
268,1094.01318359375,2206.477294921875
269,1113.4449462890625,2177.2998046875
270,1134.0244140625,2146.05224609375
271,1155.9169921875,2112.7177734375
272,1178.5206298828125,2077.623291015625
273,1202.3978271484375,2040.6962890625
274,1227.006591796875,2002.09912109375
275,1252.4190673828125,1961.5650634765625
276,1278.4332275390625,1919.5789794921875
277,1304.992431640625,1876.3408203125
278,1331.9678955078125,1831.8829345703125
279,1358.865478515625,1786.8232421875
280,1386.160888671875,1741.2503662109375
281,1412.585693359375,1695.8973388671875
282,1438.8153076171875,1650.7806396484375
283,1464.21826171875,1606.4237060546875
284,1488.60693359375,1563.258544921875
285,1100.2854223251343,2284.524573802948
286,1118.256464958191,2259.2176060676575
287,1137.3739013671875,2232.12744140625
288,1157.7110595703125,2203.215576171875
289,1178.89697265625,2172.31689453125
290,1201.4285888671875,2139.331298828125
291,1224.68798828125,2104.495849609375
292,1248.9744873046875,2067.527099609375
293,1274.0731201171875,2028.9139404296875
294,1299.7213134765625,1988.4583740234375
295,1326.03369140625,1946.437255859375
296,1352.7813720703125,1903.08642578125
297,1379.5966796875,1858.647216796875
298,1406.4864501953125,1813.3050537109375
299,1433.1358642578125,1767.585205078125
300,1459.311279296875,1721.789794921875
301,1484.7003173828125,1676.3179931640625
302,1509.4949951171875,1631.465576171875
303,1533.3546142578125,1587.718994140625
304,1142.6621713638306,2307.6876254081726
305,1161.9260234832764,2283.156972885132
306,1181.6387939453125,2256.3525390625
307,1202.7086181640625,2227.47509765625
308,1224.6319580078125,2197.064453125
309,1247.5965576171875,2164.33203125
310,1271.4822998046875,2129.5986328125
311,1296.0997314453125,2092.931640625
312,1321.607666015625,2054.363037109375
313,1347.554443359375,2014.228515625
314,1373.8885498046875,1972.209228515625
315,1400.5191650390625,1928.7642822265625
316,1427.41162109375,1884.291748046875
317,1453.9844970703125,1838.930908203125
318,1480.386474609375,1792.8607177734375
319,1505.7413330078125,1747.052978515625
320,1530.8936767578125,1701.3677978515625
321,1554.7071533203125,1656.2198486328125
322,1577.7481689453125,1611.97802734375
323,1186.185700416565,2329.6391081809998
324,1206.044352531433,2305.089011669159
325,1226.412841796875,2278.5673828125
326,1248.0994873046875,2250.267578125
327,1270.6177978515625,2219.865966796875
328,1294.2540283203125,2187.49072265625
329,1318.3707275390625,2153.134765625
330,1343.4703369140625,2116.561279296875
331,1369.2474365234375,2078.316650390625
332,1395.3521728515625,2038.175048828125
333,1421.7303466796875,1996.3067626953125
334,1448.3526611328125,1952.9888916015625
335,1474.7972412109375,1908.570556640625
336,1501.186767578125,1863.330322265625
337,1527.009521484375,1817.5133056640625
338,1552.072509765625,1771.323974609375
339,1576.3245849609375,1725.4619140625
340,1599.6658935546875,1680.1846923828125
341,1621.6387939453125,1635.7896728515625
342,1229.592685699463,2349.469506263733
343,1250.3724493980408,2325.4299082756042
344,1271.090087890625,2299.19482421875
345,1293.5052490234375,2271.28466796875
346,1316.609619140625,2240.933837890625
347,1340.6005859375,2208.772705078125
348,1365.3526611328125,2174.645751953125
349,1390.592041015625,2138.4150390625
350,1416.4981689453125,2100.25390625
351,1442.594970703125,2060.3642578125
352,1469.2286376953125,2018.7489013671875
353,1495.520751953125,1975.6470947265625
354,1521.767822265625,1931.40673828125
355,1547.7352294921875,1886.3038330078125
356,1572.896484375,1840.5595703125
357,1597.52734375,1794.450439453125
358,1621.0802001953125,1748.77734375
359,1643.31591796875,1703.3057861328125
360,1664.590576171875,1658.8543701171875