0,1649.2218599319458,2515.4593291282654
1,1614.3435292243958,2507.1195464134216
2,1579.340991973877,2496.974510192871
3,1543.306761264801,2485.250304698944
4,1505.9263005256653,2471.8791375160217
5,1468.105444908142,2457.1019830703735
6,1429.336353778839,2440.445818901062
7,1390.3766736984253,2422.106544494629
8,1351.3646564483643,2401.7101306915283
9,1311.7625784873962,2379.839826107025
10,1272.5454416275024,2356.5350217819214
11,1233.594033241272,2331.4391503334045
12,1195.1187672615051,2304.9896488189697
13,1157.4033036231995,2276.932249069214
14,1120.3858079910278,2247.927673816681
15,1084.8237309455872,2217.6740374565125
16,1050.5661334991455,2187.027117729187
17,1017.4973878860474,2155.4025750160217
18,986.3002872467041,2123.469919681549
19,1678.5013666152954,2495.994529247284
20,1644.4849181175232,2487.5756978988647
21,1609.3295259475708,2477.3958678245544
22,1572.5775203704834,2465.709219455719
23,1534.744140625,2452.640516757965
24,1496.6578035354614,2437.587866783142
25,1457.5498781204224,2421.133758544922
26,1418.2110471725464,2402.504904270172
27,1378.15625,2382.1869325637817
28,1338.1220650672913,2359.94113445282
29,1297.6788392066956,2336.3223695755005
30,1257.8839664459229,2311.1358666419983
31,1218.653148651123,2283.7613067626953
32,1180.271918296814,2255.5920639038086
33,1142.439796447754,2226.143045902252
34,1105.7623295783997,2195.4857048988342
35,1070.712857246399,2164.3781323432922
36,1037.009630203247,2132.3833780288696
37,1005.1116209030151,2099.8416590690613
38,1708.8906259536743,2475.2028822898865
39,1674.509840965271,2466.5210285186768
40,1638.9819350242615,2456.4864959716797
41,1602.376037120819,2444.7174611091614
42,1564.8214745521545,2431.3288292884827
43,1526.343243598938,2416.411232948303
44,1486.6800360679626,2399.472610473633
45,1446.7403564453125,2380.8258271217346
46,1405.9911227226257,2360.5023531913757
47,1365.2568368911743,2338.321005344391
48,1324.3573751449585,2314.345401763916
49,1283.7407674789429,2288.465512275696
50,1243.608281135559,2261.3770723342896
51,1204.0183472633362,2232.4816365242004
52,1165.3965077400208,2202.6229133605957
53,1128.0738649368286,2171.595947742462
54,1092.1382746696472,2139.77179479599
55,1057.6261835098267,2107.61998462677
56,1024.7865028381348,2074.955177307129
57,1739.3883075714111,2451.9218697547913
58,1705.1113929748535,2443.4192991256714
59,1669.9955081939697,2433.2771005630493
60,1633.1310982704163,2421.554585456848
61,1595.776351928711,2408.142301082611
62,1556.6201844215393,2393.2612643241882
63,1516.8549184799194,2376.135561943054
64,1476.2383613586426,2357.383406639099
65,1435.1073331832886,2336.9212126731873
66,1393.6412892341614,2314.474452972412
67,1352.1124358177185,2290.1145901679993
68,1310.6682119369507,2264.1201281547546
69,1269.6446838378906,2236.5692024230957
70,1229.1454582214355,2207.505922317505
71,1189.7611021995544,2177.3894534111023
72,1151.5313172340393,2145.7372698783875
73,1114.8321771621704,2113.615800857544
74,1079.2802143096924,2081.164152622223
75,1045.5816264152527,2048.0203461647034
76,1770.4660940170288,2427.4353041648865
77,1736.4802541732788,2418.4003586769104
78,1701.1427955627441,2408.404869556427
79,1664.2724533081055,2396.5006074905396
80,1626.5482244491577,2383.151572704315
81,1587.3987827301025,2367.6374955177307
82,1547.3892889022827,2350.9827666282654
83,1506.7293891906738,2331.632303714752
84,1465.1005945205688,2311.2905921936035
85,1423.2845606803894,2288.425591468811
86,1380.7168703079224,2263.783133983612
87,1338.6894931793213,2237.5758996009827
88,1297.161392211914,2209.7938652038574
89,1255.6297936439514,2180.519907474518
90,1215.4722423553467,2149.94482421875
91,1176.3382329940796,2118.451382637024
92,1138.611596107483,2085.8388710021973
93,1102.526352405548,2052.7756752967834
94,1068.038941860199,2019.7795333862305
95,1801.6048049926758,2400.5477085113525
96,1767.9189734458923,2391.5696086883545
97,1732.8904647827148,2381.234582901001
98,1696.396288394928,2369.3486828804016
99,1658.5835041999817,2355.5513167381287
100,1619.264832496643,2340.394732952118
101,1579.2784786224365,2323.244646549225
102,1537.7951798439026,2304.249699115753
103,1495.5776591300964,2283.2461400032043
104,1453.2149500846863,2260.4067511558533
105,1410.655963420868,2235.506031513214
106,1367.5502743721008,2209.18558549881
107,1325.2734069824219,2181.139132976532
108,1283.3135876655579,2151.600133895874
109,1242.341139793396,2120.746018886566
110,1202.2363533973694,2088.7606201171875
111,1163.7237615585327,2056.291444301605
112,1126.6543555259705,2023.2795147895813
113,1091.5178136825562,1989.6431679725647
114,1832.731420993805,2371.651294708252
115,1799.5069980621338,2362.667242527008
116,1764.5641627311707,2352.3214287757874
117,1729.2785458564758,2339.7341890335083
118,1690.6510391235352,2326.213924407959
119,1651.6501812934875,2310.722496509552
120,1611.0596194267273,2293.4842743873596
121,1570.5672211647034,2274.0222969055176
122,1527.4248628616333,2253.178991317749
123,1484.7148032188416,2229.799499988556
124,1441.367531299591,2205.203873157501
125,1397.7118186950684,2178.489547729492
126,1354.8587884902954,2150.3208384513855
127,1312.1122641563416,2120.3722977638245
128,1270.0161218643188,2089.426615715027
129,1229.3658094406128,2057.5479044914246
130,1190.1179308891296,2024.6674737930298
131,1152.1533098220825,1991.351894378662
132,1116.373736858368,1957.7860655784607
133,1864.6362533569336,2340.92839717865
134,1830.9522457122803,2331.811649799347
135,1796.7918343544006,2321.0231609344482
136,1760.7460479736328,2308.5555033683777
137,1723.070156097412,2294.6694412231445
138,1683.8753905296326,2278.9985027313232
139,1643.6507873535156,2261.306788921356
140,1602.3513231277466,2241.8659491539
141,1559.696265220642,2220.491717815399
142,1516.560118675232,2197.49996137619
143,1472.9295387268066,2172.410514354706
144,1428.720100402832,2145.550931930542
145,1385.2049069404602,2117.1405601501465
146,1341.7403173446655,2087.26309633255
147,1299.302402496338,2056.2108883857727
148,1257.5462980270386,2023.8774600028992
149,1217.4370846748352,1991.2167806625366
150,1179.2237420082092,1957.8671164512634
151,1142.2127161026,1924.6143765449524
152,1894.8779430389404,2308.680371761322
153,1862.2378730773926,2299.027581214905
154,1828.5443410873413,2287.672731399536
155,1793.1255354881287,2275.053822040558
156,1755.3655762672424,2261.1749172210693
157,1716.5356421470642,2245.031180381775
158,1676.4573454856873,2227.152153968811
159,1635.0665407180786,2207.3757700920105
160,1592.4478797912598,2185.9891500473022
161,1548.9721975326538,2162.7116799354553
162,1504.7236886024475,2137.557927131653
163,1460.8739142417908,2110.4349274635315
164,1416.5786666870117,2081.8262100219727
165,1372.5108518600464,2051.8777179718018
166,1329.3481359481812,2020.845944404602
167,1286.9225702285767,1988.7243962287903
168,1246.0201144218445,1956.0435237884521
169,1206.711450099945,1922.852541923523
170,1169.403883934021,1889.6930031776428
171,1925.2378039360046,2274.349594593048
172,1893.3301916122437,2264.216477870941
173,1859.776388168335,2252.6475496292114
174,1824.6795401573181,2239.6020016670227
175,1787.5691499710083,2224.976406097412
176,1749.2964491844177,2208.7991104125977
177,1709.3220262527466,2190.7342109680176
178,1667.688419342041,2170.933928489685
179,1625.3253288269043,2149.1963901519775
180,1581.8225407600403,2125.4576210975647
181,1537.6636304855347,2100.4137196540833
182,1492.9783926010132,2073.3457403182983
183,1448.3511319160461,2044.7228899002075
184,1403.5494165420532,2014.8120565414429
185,1360.276849269867,1983.6288776397705
186,1317.2049851417542,1951.7802481651306
187,1275.6178798675537,1919.186095237732
188,1235.8560750484467,1886.3746936321259
189,1197.4418988227844,1853.49937582016
190,1954.927945137024,2238.509126663208
191,1924.1617069244385,2227.491930961609
192,1890.8404746055603,2215.662253856659
193,1855.9533610343933,2202.357624053955
194,1819.6293606758118,2187.3530535697937
195,1782.1528239250183,2170.4541549682617
196,1742.3148665428162,2152.3579638004303
197,1701.16730594635,2132.327005147934
198,1658.438500404358,2110.2474246025085
199,1614.8118839263916,2086.597596645355
200,1571.60586476326,2062.3917142152786
201,1525.5928621292114,2033.936857700348
202,1480.5130863189697,2005.6445498466492
203,1435.5578632354736,1975.6867895126343
204,1391.444278717041,1944.6287369728088
205,1348.3624601364136,1912.9349274635315
206,1305.856432914734,1880.6213755607605
207,1265.6054964065552,1848.012972354889
208,1226.3753938674927,1815.498782157898
209,1983.7890238761902,2200.8376607894897
210,1953.364986896515,2189.628667831421
211,1920.6526708602905,2177.2670392990112
212,1886.5350179672241,2163.24849653244
213,1850.6649041175842,2147.698441028595
214,1813.343906879425,2130.6767587661743
215,1774.0955286026,2111.9058866500854
216,1733.1241326332092,2091.545784473419
217,1691.3790049552917,2069.3409299850464
218,1647.7176699638367,2045.4871187210083
219,1603.2734751701355,2020.0298585891724
220,1558.3731956481934,1992.9550423622131
221,1513.3547472953796,1964.639079093933
222,1468.2288641929626,1934.9294292926788
223,1423.9226741790771,1904.0249993801117
224,1379.8254075050354,1872.6592717170715
225,1336.7743134498596,1840.7951555252075
226,1295.7719645500183,1808.4905190467834
227,1256.11643409729,1776.665048122406
228,2011.6115970611572,2161.773184299469
229,1981.6836733818054,2150.1013073921204
230,1950.1087670326233,2137.292582511902
231,1916.308388710022,2122.6173434257507
232,1880.878975391388,2106.600914955139
233,1843.8155040740967,2089.3075098991394
234,1805.254325389862,2070.09659576416
235,1764.6680736541748,2049.3839197158813
236,1722.981439113617,2027.1556253433228
237,1680.2891101837158,2002.920731306076
238,1635.7535381317139,1977.3037176132202
239,1590.8321294784546,1950.4649686813354
240,1545.6146440505981,1921.9464659690857
241,1500.3728647232056,1892.5967454910278
242,1455.3540048599243,1862.1765837669373
243,1411.3156805038452,1831.1203770637512
244,1368.365378856659,1799.5971732139587
245,1326.6217703819275,1768.2866439819336
246,1286.4873843193054,1737.1233558654785
247,2038.506181716919,2121.9211707115173
248,2009.3834800720215,2109.669286251068
249,1977.6772985458374,2095.662857532501
250,1944.691786289215,2080.627883911133
251,1910.233120918274,2064.3071813583374
252,1873.8426094055176,2046.2882361412048
253,1835.4247450828552,2026.931457042694
254,1795.4604330062866,2006.1474208831787
255,1754.438039302826,1983.2155413627625
256,1711.5753102302551,1959.5474574565887
257,1668.0652503967285,1933.5024218559265
258,1622.9291706085205,1906.7326836585999
259,1578.0496292114258,1878.4422023296356
260,1532.5818276405334,1849.0002989768982
261,1487.7192249298096,1819.0712773799896
262,1443.2006068229675,1788.5360836982727
263,1400.0818819999695,1757.7591819763184
264,1357.6231265068054,1727.268379688263
265,1317.5752449035645,1696.5574374198914
266,2063.551523208618,2081.2422671318054
267,2034.9254474639893,2067.8959546089172
268,2004.394884109497,2053.431547641754
269,1972.4052834510803,2037.7255232334137
270,1938.009910583496,2021.2790970802307
271,1902.1856307983398,2002.714638710022
272,1864.638526916504,1982.7090559005737
273,1825.332772731781,1961.493890285492
274,1784.317539215088,1938.776095867157
275,1742.0120363235474,1914.4330306053162
276,1698.550606250763,1888.694396495819
277,1654.305609703064,1861.7988362312317
278,1609.2302403450012,1833.9856300354004
279,1564.4193110466003,1804.9077265262604
280,1519.1604313850403,1775.4346165657043
281,1474.604929447174,1745.4621772766113
282,1431.2475414276123,1715.3769526481628
283,1388.921953678131,1685.5230875015259
284,1348.2301850318909,1655.8064932823181
285,2087.553316116333,2039.5030670166016
286,2059.369234085083,2025.887043952942
287,2029.6606750488281,2010.680465221405
288,1998.0720901489258,1994.703158378601
289,1964.7526223659515,1976.9050843715668
290,1929.1678943634033,1958.2250046730042
291,1892.1615314483643,1937.5918655395508
292,1853.5921902656555,1916.2345476150513
293,1812.9361944198608,1893.3827013969421
294,1771.2090787887573,1869.028401851654
295,1728.4924011230469,1843.3819417953491
296,1684.5223541259766,1816.67214345932
297,1640.2414102554321,1789.1036882400513
298,1594.884382724762,1761.0373260974884
299,1550.3654870986938,1731.3197841644287
300,1505.6596641540527,1702.1087174415588
301,1462.4434089660645,1672.929560661316
302,1420.0264172554016,1643.6637501716614
303,1379.3251190185547,1615.2096862792969
304,2109.414505958557,1997.699161529541
305,2082.1788358688354,1983.089572429657
306,2052.7256383895874,1967.5797741413116
307,2021.6141119003296,1950.7215685844421
308,1988.933217048645,1932.5718564987183
309,1954.2772092819214,1913.1823983192444
310,1917.9676313400269,1892.8367867469788
311,1880.0801429748535,1870.8085751533508
312,1840.0627374649048,1847.5978155136108
313,1799.2553844451904,1823.4993042945862
314,1756.7444305419922,1798.0273942947388
315,1713.5367150306702,1771.3836364746094
316,1669.4192695617676,1743.9383025169373
317,1624.727056980133,1715.949583530426
318,1580.0085649490356,1687.6598811149597
319,1536.5551023483276,1659.1155626773834
320,1492.5987839698792,1630.485867023468
321,1450.8923196792603,1602.5367772579193
322,1409.5418548583984,1574.6021885871887
323,2129.707218170166,1955.5126132965088
324,2102.8501377105713,1940.5409655570984
325,2074.442488670349,1924.1771683692932
326,2043.8337469100952,1906.8543891906738
327,2012.1300702095032,1888.320405960083
328,1977.8187718391418,1868.3269362449646
329,1942.2013301849365,1847.4225511550903
330,1904.846776008606,1825.4203667640686
331,1865.8426218032837,1802.1388597488403
332,1825.6469864845276,1777.8639583587646
333,1783.6302299499512,1752.7037168741226
334,1740.8975892066956,1726.3383445739746
335,1697.246898174286,1699.5629193782806
336,1653.4644513130188,1671.9174432754517
337,1609.5152988433838,1644.3141641616821
338,1565.438998222351,1616.6344270706177
339,1522.4251165390015,1588.8131277561188
340,1480.2278442382812,1561.5942420959473
341,1439.5001940727234,1535.2372283935547
342,2148.793433189392,1913.6424839496613
343,2122.0935983657837,1897.7228651046753
344,2094.3256940841675,1880.8462109565735
345,2064.334728240967,1863.0749859809875
346,2032.8668603897095,1844.9365530014038
347,1999.655419588089,1823.6710209846497
348,1964.52064037323,1802.7240438461304
349,1928.3594245910645,1780.4710576534271
350,1889.8512015342712,1757.1239285469055
351,1850.2051548957825,1732.7103824615479
352,1808.938780784607,1707.4775347709656
353,1766.9536890983582,1681.7827167510986
354,1724.2475576400757,1655.4419989585876
355,1680.7115182876587,1628.7120656967163
356,1636.893445968628,1601.4736323356628
357,1593.5509042739868,1574.5230021476746
358,1551.0183906555176,1547.6719369888306
359,1508.9169836044312,1521.6707301139832
360,1468.1011290550232,1496.200159072876